(footprint "Adafruit Pro trinket-Backpack" (version 20211014) (generator pcbnew)
  (layer "F.Cu")
  (tedit 637FB2AF)
  (attr through_hole)
  (fp_text reference "REF**" (at 0 -0.5 unlocked) (layer "F.SilkS") hide
    (effects (font (size 1 1) (thickness 0.15)))
    (tstamp fa4f2f3b-8401-45a7-9fc0-b89fad7c6f91)
  )
  (fp_text value "Adafruit Pro trinket-Backpack" (at -1.31 4.31 unlocked) (layer "F.Fab") hide
    (effects (font (size 1 1) (thickness 0.15)))
    (tstamp d14dbe84-d61d-4866-bff5-09cd08533de4)
  )
  (fp_line (start 2.48 -3.28) (end 7.306 -3.28) (layer "B.SilkS") (width 0.254) (tstamp 68bec2b9-a0fe-46de-94f5-701d82936c3c))
  (fp_line (start 2.48 -0.994) (end 2.48 -3.28) (layer "B.SilkS") (width 0.254) (tstamp 91cb798b-6a7b-497d-91cc-fd211d0ee226))
  (fp_line (start 7.306 -0.994) (end 2.48 -0.994) (layer "B.SilkS") (width 0.254) (tstamp b72a2293-b032-4ba1-af57-7134b9e77597))
  (fp_line (start 7.306 -3.28) (end 7.306 -0.994) (layer "B.SilkS") (width 0.254) (tstamp dc02b024-263c-478f-be56-01b5feebd5cf))
  (fp_poly (pts
      (xy 5.244759 -8.50027)
      (xy 5.904759 -8.32027)
      (xy 6.394759 -8.04027)
      (xy 6.804759 -7.66027)
      (xy 7.134759 -7.22027)
      (xy 7.364759 -6.64027)
      (xy 7.444759 -6.16027)
      (xy 7.451759 -5.97327)
      (xy 7.451759 5.45673)
      (xy 7.434759 5.82973)
      (xy 7.334759 6.21973)
      (xy 7.164759 6.61973)
      (xy 6.864759 7.08973)
      (xy 6.574759 7.37973)
      (xy 6.224759 7.62973)
      (xy 5.774759 7.84973)
      (xy 5.324759 7.96973)
      (xy 4.934759 7.98973)
      (xy 4.911759 7.99673)
      (xy -5.248241 7.99673)
      (xy -5.735241 7.94973)
      (xy -6.205241 7.79973)
      (xy -6.625241 7.58973)
      (xy -6.915241 7.38973)
      (xy -7.215241 7.06973)
      (xy -7.385241 6.83973)
      (xy -7.595241 6.43973)
      (xy -7.725241 6.00973)
      (xy -7.795241 5.57973)
      (xy -7.788241 5.43973)
      (xy -7.788241 -5.97327)
      (xy -7.755241 -6.40027)
      (xy -7.655241 -6.79027)
      (xy -7.425241 -7.29027)
      (xy -7.195241 -7.60027)
      (xy -6.955241 -7.85027)
      (xy -6.675241 -8.08027)
      (xy -6.335241 -8.27027)
      (xy -5.875241 -8.44027)
      (xy -5.525241 -8.50027)
    ) (layer "B.SilkS") (width 0.05) (fill none) (tstamp d6f4fe5b-34dc-4812-9d77-f5a975de49d6))
  (fp_line (start -2.83 -3.286) (end -7.656 -3.286) (layer "F.SilkS") (width 0.254) (tstamp 61636ab4-9fc6-472e-99d2-3704d83dc8d2))
  (fp_line (start -2.83 -1) (end -2.83 -3.286) (layer "F.SilkS") (width 0.254) (tstamp 8de04f54-872e-4fe0-91d1-2be330b55134))
  (fp_line (start -7.656 -3.286) (end -7.656 -1) (layer "F.SilkS") (width 0.254) (tstamp cb71d32e-69f9-4aed-aa5e-3c90636c06fe))
  (fp_line (start -7.656 -1) (end -2.83 -1) (layer "F.SilkS") (width 0.254) (tstamp fb1ae546-8d8a-4ac1-a555-558e14228cc4))
  (fp_poly (pts
      (xy 5.25 -8.48)
      (xy 5.91 -8.3)
      (xy 6.4 -8.02)
      (xy 6.81 -7.64)
      (xy 7.14 -7.2)
      (xy 7.37 -6.62)
      (xy 7.45 -6.14)
      (xy 7.457 -5.953)
      (xy 7.457 5.477)
      (xy 7.44 5.85)
      (xy 7.34 6.24)
      (xy 7.17 6.64)
      (xy 6.87 7.11)
      (xy 6.58 7.4)
      (xy 6.23 7.65)
      (xy 5.78 7.87)
      (xy 5.33 7.99)
      (xy 4.94 8.01)
      (xy 4.917 8.017)
      (xy -5.243 8.017)
      (xy -5.73 7.97)
      (xy -6.2 7.82)
      (xy -6.62 7.61)
      (xy -6.91 7.41)
      (xy -7.21 7.09)
      (xy -7.38 6.86)
      (xy -7.59 6.46)
      (xy -7.72 6.03)
      (xy -7.79 5.6)
      (xy -7.783 5.46)
      (xy -7.783 -5.953)
      (xy -7.75 -6.38)
      (xy -7.65 -6.77)
      (xy -7.42 -7.27)
      (xy -7.19 -7.58)
      (xy -6.95 -7.83)
      (xy -6.67 -8.06)
      (xy -6.33 -8.25)
      (xy -5.87 -8.42)
      (xy -5.52 -8.48)
    ) (layer "F.SilkS") (width 0.05) (fill none) (tstamp 65093416-6931-45fe-8f8d-2241d620796b))
  (pad "" smd custom (at 4.13 -4.53) (size 0.91786 1) (layers "B.Cu" "B.Paste" "B.Mask")
    (solder_mask_margin 0.0508)
    (options (clearance outline) (anchor rect))
    (primitives
      (gr_poly (pts
          (xy -0.4588 0.49)
          (xy -0.7888 0)
          (xy -0.46 -0.49)
        ) (width 0.02) (fill yes))
    ) (tstamp 00d1cb42-283e-4509-9184-c3451ce6339b))
  (pad "" smd rect (at 5.145067 0.389933 180) (size 0.829866 0.559866) (layers "B.Cu" "B.Paste" "B.Mask")
    (solder_mask_margin 0.0508) (tstamp 011a05cc-cd44-40b9-8b26-f3bc7486741c))
  (pad "" smd rect (at 4.77 -1.07 60) (size 0.635 0.4) (layers "B.Cu" "B.Paste" "B.Mask")
    (solder_mask_margin 0.0508) (tstamp 016356f9-e009-41ce-b9e6-1cc5fd1e77ea))
  (pad "" smd custom (at -4.74 5.49) (size 0.91786 1) (layers "F.Cu" "F.Paste" "F.Mask")
    (solder_mask_margin 0.0508)
    (options (clearance outline) (anchor rect))
    (primitives
      (gr_poly (pts
          (xy 0.4588 0.49)
          (xy 0.7888 0)
          (xy 0.46 -0.49)
        ) (width 0.02) (fill yes))
    ) (tstamp 0218ebcb-ac9a-4912-952e-85a414ee6944))
  (pad "" thru_hole circle (at -3.973 -2.143 270) (size 1.778 1.778) (drill 1) (layers *.Cu *.Mask)
    (solder_mask_margin 0.0508) (tstamp 030ab9db-a43b-49ab-807e-5ef480f91b70))
  (pad "" thru_hole circle (at -6.513 2.937) (size 1.9304 1.9304) (drill 1) (layers *.Cu *.Mask)
    (solder_mask_margin 0.0508) (tstamp 0d9ae2df-85e3-4ac0-a098-d6751cdc2d57))
  (pad "" smd rect (at -2.38 -4.49 270) (size 0.4 2.11812) (layers "F.Cu" "F.Paste" "F.Mask")
    (solder_mask_margin 0.0508) (tstamp 17915c3a-9095-4d4d-a9b5-30cdd5c2c87e))
  (pad "" smd rect (at 0.34 -2.17 270) (size 0.4 2.11812) (layers "F.Cu" "F.Paste" "F.Mask")
    (solder_mask_margin 0.0508) (tstamp 17ceb0a7-9796-4f9f-9567-100a7c7bf9a0))
  (pad "" smd custom (at -3.02 -4.49 180) (size 0.559732 0.97) (layers "F.Cu" "F.Paste" "F.Mask")
    (solder_mask_margin 0.0508)
    (options (clearance outline) (anchor rect))
    (primitives
      (gr_poly (pts
          (xy -0.280268 -0.5)
          (xy 0.78 -0.5)
          (xy 0.45 0)
          (xy 0.78 0.49)
          (xy -0.280268 0.49)
        ) (width 0.02) (fill yes))
    ) (tstamp 298b82d8-d541-47fd-865f-03136bd68773))
  (pad "" smd custom (at 2.86 5.483 180) (size 0.559732 0.97) (layers "B.Cu" "B.Paste" "B.Mask")
    (solder_mask_margin 0.0508)
    (options (clearance outline) (anchor rect))
    (primitives
      (gr_poly (pts
          (xy 0.280268 -0.5)
          (xy -0.78 -0.5)
          (xy -0.45 0)
          (xy -0.78 0.49)
          (xy 0.280268 0.49)
        ) (width 0.02) (fill yes))
    ) (tstamp 29f6f389-7e26-432b-a65a-adec35295511))
  (pad "" smd custom (at -4.5 -4.49) (size 0.91786 1) (layers "F.Cu" "F.Paste" "F.Mask")
    (solder_mask_margin 0.0508)
    (options (clearance outline) (anchor rect))
    (primitives
      (gr_poly (pts
          (xy 0.4588 0.49)
          (xy 0.7888 0)
          (xy 0.46 -0.49)
        ) (width 0.02) (fill yes))
    ) (tstamp 31f75fdd-8861-4beb-92ed-101532e53c2b))
  (pad "" thru_hole circle (at -6.513 5.477) (size 1.9304 1.9304) (drill 1) (layers *.Cu *.Mask)
    (solder_mask_margin 0.0508) (tstamp 4634d9af-fdd3-40a2-938e-c35b918419eb))
  (pad "" smd rect (at 5.2 -3.78 62) (size 1.38875 0.4) (layers "B.Cu" "B.Paste" "B.Mask")
    (solder_mask_margin 0.0508) (tstamp 48cc58f9-a540-48fe-b93e-87ecdd9cd1c4))
  (pad "" smd rect (at 1.344933 0.409933 180) (size 2.649866 0.519866) (layers "B.Cu" "B.Paste" "B.Mask")
    (solder_mask_margin 0.0508) (tstamp 4a585a64-46a2-4cc4-81d1-9461f97cfa04))
  (pad "" smd rect (at -1.744933 5.499933 180) (size 2.649866 0.519866) (layers "F.Cu" "F.Paste" "F.Mask")
    (solder_mask_margin 0.0508) (tstamp 4fee9936-af9a-453b-8c63-a0f407cefc2c))
  (pad "" thru_hole circle (at 3.623 -2.137 90) (size 1.778 1.778) (drill 1) (layers *.Cu *.Mask)
    (solder_mask_margin 0.0508) (tstamp 54e54224-d2b3-4acc-8851-7afc784b4659))
  (pad "" smd custom (at -3.26 2.950067 180) (size 0.559732 0.97) (layers "F.Cu" "F.Paste" "F.Mask")
    (solder_mask_margin 0.0508)
    (options (clearance outline) (anchor rect))
    (primitives
      (gr_poly (pts
          (xy -0.280268 -0.5)
          (xy 0.78 -0.5)
          (xy 0.45 0)
          (xy 0.78 0.49)
          (xy -0.280268 0.49)
        ) (width 0.02) (fill yes))
    ) (tstamp 56431d7e-69c0-40ce-b5aa-e3188c9c9bf1))
  (pad "" smd custom (at 6.72 -4.55) (size 0.91786 1) (layers "B.Cu" "B.Paste" "B.Mask")
    (solder_mask_margin 0.0508)
    (options (clearance outline) (anchor rect))
    (primitives
      (gr_poly (pts
          (xy -0.4588 0.49)
          (xy -0.7888 0)
          (xy -0.46 -0.49)
        ) (width 0.02) (fill yes))
    ) (tstamp 56ab0aa5-1d50-4513-8b9b-8eb1d4dc0acd))
  (pad "" smd custom (at 4.34 0.4) (size 0.91786 1) (layers "B.Cu" "B.Paste" "B.Mask")
    (solder_mask_margin 0.0508)
    (options (clearance outline) (anchor rect))
    (primitives
      (gr_poly (pts
          (xy -0.4588 0.49)
          (xy -0.7888 0)
          (xy -0.46 -0.49)
        ) (width 0.02) (fill yes))
    ) (tstamp 5dfda9a7-6203-4184-956e-3005f47fee9a))
  (pad "" smd rect (at 1.19953 -3.279999 180) (size 0.4 2.619998) (layers "F.Cu" "F.Paste" "F.Mask")
    (solder_mask_margin 0.0508) (tstamp 5e09342a-f066-4439-b3f4-14517e7011d6))
  (pad "" smd rect (at -5.545067 5.479933 180) (size 0.829866 0.559866) (layers "F.Cu" "F.Paste" "F.Mask")
    (solder_mask_margin 0.0508) (tstamp 60bf0ecc-eb30-4148-8f9d-0ab53a451c74))
  (pad "" smd rect (at -2.73 -2.17 270) (size 0.4 2.11812) (layers "F.Cu" "F.Paste" "F.Mask")
    (solder_mask_margin 0.0508) (tstamp 61e01fab-9f2f-4d95-9d9c-4083c74f28b6))
  (pad "" smd rect (at 3.302226 -0.892519) (size 2.964452 0.4) (layers "B.Cu" "B.Paste" "B.Mask")
    (solder_mask_margin 0.0508) (tstamp 62d57b81-a995-46f4-89bb-fe7f28689666))
  (pad "" smd custom (at 5.24 -4.55 180) (size 0.559732 0.97) (layers "B.Cu" "B.Paste" "B.Mask")
    (solder_mask_margin 0.0508)
    (options (clearance outline) (anchor rect))
    (primitives
      (gr_poly (pts
          (xy 0.280268 -0.5)
          (xy -0.78 -0.5)
          (xy -0.45 0)
          (xy -0.78 0.49)
          (xy 0.280268 0.49)
        ) (width 0.02) (fill yes))
    ) (tstamp 63992e36-c959-4f61-87c9-06e1cc9ef710))
  (pad "" smd rect (at 4.900976 -2.257005 270) (size 2.02408 0.4) (layers "B.Cu" "B.Paste" "B.Mask")
    (solder_mask_margin 0.0508) (tstamp 65844fb5-505b-4ce6-80cc-040a80ecaa06))
  (pad "" smd rect (at -1.744933 2.96 180) (size 2.649866 0.519866) (layers "F.Cu" "F.Paste" "F.Mask")
    (solder_mask_margin 0.0508) (tstamp 688d90f8-0055-4822-80af-3124c16d60b1))
  (pad "" smd custom (at 2.86 2.93 180) (size 0.559732 0.97) (layers "B.Cu" "B.Paste" "B.Mask")
    (solder_mask_margin 0.0508)
    (options (clearance outline) (anchor rect))
    (primitives
      (gr_poly (pts
          (xy 0.280268 -0.5)
          (xy -0.78 -0.5)
          (xy -0.45 0)
          (xy -0.78 0.49)
          (xy 0.280268 0.49)
        ) (width 0.02) (fill yes))
    ) (tstamp 6d866860-b802-472d-9c08-374f0dfff1bd))
  (pad "" smd custom (at -4.74 0.4) (size 0.91786 1) (layers "F.Cu" "F.Paste" "F.Mask")
    (solder_mask_margin 0.0508)
    (options (clearance outline) (anchor rect))
    (primitives
      (gr_poly (pts
          (xy 0.4588 0.49)
          (xy 0.7888 0)
          (xy 0.46 -0.49)
        ) (width 0.02) (fill yes))
    ) (tstamp 6f94dfd6-9e28-4dc3-8eb1-135fceab6602))
  (pad "" smd custom (at -0.53 -2.16 180) (size 0.559732 0.97) (layers "F.Cu" "F.Paste" "F.Mask")
    (solder_mask_margin 0.0508)
    (options (clearance outline) (anchor rect))
    (primitives
      (gr_poly (pts
          (xy -0.280268 -0.5)
          (xy 0.78 -0.5)
          (xy 0.45 0)
          (xy 0.78 0.49)
          (xy -0.280268 0.49)
        ) (width 0.02) (fill yes))
    ) (tstamp 6fddb41e-bfc2-46f8-bdb5-a1db96e70441))
  (pad "" thru_hole circle (at 6.163 2.943) (size 1.9304 1.9304) (drill 1) (layers *.Cu *.Mask)
    (solder_mask_margin 0.0508) (tstamp 6ffe2942-8181-4fdc-b68b-be38a6d2270a))
  (pad "" smd custom (at -3.26 0.4 180) (size 0.559732 0.97) (layers "F.Cu" "F.Paste" "F.Mask")
    (solder_mask_margin 0.0508)
    (options (clearance outline) (anchor rect))
    (primitives
      (gr_poly (pts
          (xy -0.280268 -0.5)
          (xy 0.78 -0.5)
          (xy 0.45 0)
          (xy 0.78 0.49)
          (xy -0.280268 0.49)
        ) (width 0.02) (fill yes))
    ) (tstamp 714397c0-76c2-4e17-9f4e-8a056e8ff575))
  (pad "" thru_hole circle (at 6.163 5.483) (size 1.9304 1.9304) (drill 1) (layers *.Cu *.Mask)
    (solder_mask_margin 0.0508) (tstamp 79bf27d6-4eb4-4612-bf25-eaf57603eaec))
  (pad "" smd rect (at -5.54 -4.49 270) (size 0.4 2.11812) (layers "F.Cu" "F.Paste" "F.Mask")
    (solder_mask_margin 0.0508) (tstamp 7ab39902-edba-4793-8bd7-c6f4c1c6e66c))
  (pad "" smd custom (at -4.74 2.950067) (size 0.91786 1) (layers "F.Cu" "F.Paste" "F.Mask")
    (solder_mask_margin 0.0508)
    (options (clearance outline) (anchor rect))
    (primitives
      (gr_poly (pts
          (xy 0.4588 0.49)
          (xy 0.7888 0)
          (xy 0.46 -0.49)
        ) (width 0.02) (fill yes))
    ) (tstamp 7addeb85-842f-4897-bb19-e4d992142f5b))
  (pad "" thru_hole circle (at 6.163 -2.137 90) (size 1.778 1.778) (drill 1) (layers *.Cu *.Mask)
    (solder_mask_margin 0.0508) (tstamp 80c93ec3-a259-4160-9413-ca4553382afc))
  (pad "" smd rect (at 5.145067 2.93 180) (size 0.829866 0.559866) (layers "B.Cu" "B.Paste" "B.Mask")
    (solder_mask_margin 0.0508) (tstamp 84f57c0c-3b18-4395-bf19-77dac1d0c456))
  (pad "" smd rect (at 2.284369 -4.53 270) (size 0.398114 1.468738) (layers "B.Cu" "B.Paste" "B.Mask")
    (solder_mask_margin 0.0508) (tstamp 95732b2c-fa6c-473c-8a6d-60e22ba8ac4e))
  (pad "" thru_hole circle (at 6.163 0.403) (size 1.9304 1.9304) (drill 1) (layers *.Cu *.Mask)
    (solder_mask_margin 0.0508) (tstamp a00ba33b-5342-4b42-9f4d-ece3cebc712a))
  (pad "" smd custom (at -3.26 5.49 180) (size 0.559732 0.97) (layers "F.Cu" "F.Paste" "F.Mask")
    (solder_mask_margin 0.0508)
    (options (clearance outline) (anchor rect))
    (primitives
      (gr_poly (pts
          (xy -0.280268 -0.5)
          (xy 0.78 -0.5)
          (xy 0.45 0)
          (xy 0.78 0.49)
          (xy -0.280268 0.49)
        ) (width 0.02) (fill yes))
    ) (tstamp a4586ec4-ace7-4948-a801-224d10e487c6))
  (pad "" thru_hole circle (at -6.513 0.397) (size 1.9304 1.9304) (drill 1) (layers *.Cu *.Mask)
    (solder_mask_margin 0.0508) (tstamp a7f5d92c-a93c-4cf3-8a41-c795fb6d4c70))
  (pad "" smd rect (at -1.744933 0.4 180) (size 2.649866 0.519866) (layers "F.Cu" "F.Paste" "F.Mask")
    (solder_mask_margin 0.0508) (tstamp aea5cc1a-7e58-4481-92ea-a272de27373c))
  (pad "" smd custom (at 2.86 0.4 180) (size 0.559732 0.97) (layers "B.Cu" "B.Paste" "B.Mask")
    (solder_mask_margin 0.0508)
    (options (clearance outline) (anchor rect))
    (primitives
      (gr_poly (pts
          (xy 0.280268 -0.5)
          (xy -0.78 -0.5)
          (xy -0.45 0)
          (xy -0.78 0.49)
          (xy 0.280268 0.49)
        ) (width 0.02) (fill yes))
    ) (tstamp b3506ffa-dc98-45a0-ad76-610f3a1c33a1))
  (pad "" smd rect (at 5.145067 5.483 180) (size 0.829866 0.559866) (layers "B.Cu" "B.Paste" "B.Mask")
    (solder_mask_margin 0.0508) (tstamp c074bb6f-19f3-4674-8671-bb3aeaf3aad5))
  (pad "" smd rect (at -6.48 -3.63) (size 0.4 2.11812) (layers "F.Cu" "F.Paste" "F.Mask")
    (solder_mask_margin 0.0508) (tstamp cb101b1c-6d89-416c-b700-d2b0d2b1e75c))
  (pad "" smd custom (at 2.65 -4.53 180) (size 0.559732 0.97) (layers "B.Cu" "B.Paste" "B.Mask")
    (solder_mask_margin 0.0508)
    (options (clearance outline) (anchor rect))
    (primitives
      (gr_poly (pts
          (xy 0.280268 -0.5)
          (xy -0.78 -0.5)
          (xy -0.45 0)
          (xy -0.78 0.49)
          (xy 0.280268 0.49)
        ) (width 0.02) (fill yes))
    ) (tstamp d5633471-c449-466a-b1e1-64fbcf3c2390))
  (pad "" smd rect (at 1.344933 5.483 180) (size 2.649866 0.519866) (layers "B.Cu" "B.Paste" "B.Mask")
    (solder_mask_margin 0.0508) (tstamp d8db1159-49fe-4635-a5b1-f579a646f4a5))
  (pad "" smd custom (at -2.01 -2.16) (size 0.91786 1) (layers "F.Cu" "F.Paste" "F.Mask")
    (solder_mask_margin 0.0508)
    (options (clearance outline) (anchor rect))
    (primitives
      (gr_poly (pts
          (xy 0.4588 0.49)
          (xy 0.7888 0)
          (xy 0.46 -0.49)
        ) (width 0.02) (fill yes))
    ) (tstamp e08b0d0d-92e1-460d-90d1-c332d20d6592))
  (pad "" smd custom (at 4.34 5.483) (size 0.91786 1) (layers "B.Cu" "B.Paste" "B.Mask")
    (solder_mask_margin 0.0508)
    (options (clearance outline) (anchor rect))
    (primitives
      (gr_poly (pts
          (xy -0.4588 0.49)
          (xy -0.7888 0)
          (xy -0.46 -0.49)
        ) (width 0.02) (fill yes))
    ) (tstamp e57aa683-bba5-46e8-95c9-6e049df4f559))
  (pad "" smd rect (at -5.545067 2.94 180) (size 0.829866 0.559866) (layers "F.Cu" "F.Paste" "F.Mask")
    (solder_mask_margin 0.0508) (tstamp e7a989c8-1edc-4ca0-ab53-8d0429b08176))
  (pad "" smd custom (at 4.34 2.93) (size 0.91786 1) (layers "B.Cu" "B.Paste" "B.Mask")
    (solder_mask_margin 0.0508)
    (options (clearance outline) (anchor rect))
    (primitives
      (gr_poly (pts
          (xy -0.4588 0.49)
          (xy -0.7888 0)
          (xy -0.46 -0.49)
        ) (width 0.02) (fill yes))
    ) (tstamp eae15761-e139-4eae-b990-f4ab4ac2f713))
  (pad "" smd rect (at -5.545067 0.4 180) (size 0.829866 0.559866) (layers "F.Cu" "F.Paste" "F.Mask")
    (solder_mask_margin 0.0508) (tstamp ee791440-7790-470f-a251-c75d2895c597))
  (pad "" smd rect (at 6.49 -3.41 160) (size 0.4 1.697478) (layers "B.Cu" "B.Paste" "B.Mask")
    (solder_mask_margin 0.0508) (tstamp efcfccc8-f505-4266-9da5-3e41461816c1))
  (pad "" thru_hole circle (at -6.513 -2.143 270) (size 1.778 1.778) (drill 1) (layers *.Cu *.Mask)
    (solder_mask_margin 0.0508) (tstamp f1befdc3-b515-4adb-ba45-2ccf60d0230b))
  (pad "" smd rect (at 1.344933 2.93 180) (size 2.649866 0.519866) (layers "B.Cu" "B.Paste" "B.Mask")
    (solder_mask_margin 0.0508) (tstamp f2f86ede-561f-45ce-87d7-f95e07e26035))
  (pad "" smd rect (at 0.56 -2.51 310) (size 4.405 0.4) (layers "B.Cu" "B.Paste" "B.Mask")
    (solder_mask_margin 0.0508) (tstamp f62ca608-49f1-4fb2-96ce-28ad136d28ea))
  (pad "" smd rect (at 3.93 -3.4 74) (size 1.734375 0.399998) (layers "B.Cu" "B.Paste" "B.Mask")
    (solder_mask_margin 0.0508) (tstamp f67513ab-4a20-465b-9f98-8ff288d90df3))
  (pad "1" thru_hole circle (at -1.34 -4.49 270) (size 1.778 1.778) (drill 1) (layers *.Cu *.Mask)
    (solder_mask_margin 0.0508) (tstamp 07c5cd68-d33e-4303-a980-2429886723ee))
  (pad "3" thru_hole circle (at 1.2 -4.49 270) (size 1.778 1.778) (drill 1) (layers *.Cu *.Mask)
    (solder_mask_margin 0.0508) (tstamp 867853a4-f8c9-4bd7-8b91-d7b0f41bfffa))
  (pad "5V" thru_hole circle (at -0.01 0.403) (size 1.9304 1.9304) (drill 1) (layers *.Cu *.Mask)
    (solder_mask_margin 0.0508) (tstamp c29fa13e-554b-4dc7-9b56-e3d56856a976))
  (pad "BAT" thru_hole circle (at -0.01 5.483) (size 1.9304 1.9304) (drill 1) (layers *.Cu *.Mask)
    (solder_mask_margin 0.0508) (tstamp 75eca12c-45db-42b2-9122-4620ba27a7f7))
  (pad "G" thru_hole circle (at -0.01 2.943) (size 1.9304 1.9304) (drill 1) (layers *.Cu *.Mask)
    (solder_mask_margin 0.0508) (tstamp a77a5e54-65e0-46dd-b41a-6c9b01efb0ba))
)
